%YAML 1.1
%TAG !u! tag:unity3d.com,2011:
--- !u!1045 &1
EditorBuildSettings:
  m_ObjectHideFlags: 0
  serializedVersion: 2
  m_Scenes:
  - enabled: 1
    path: Assets/Scenes/Inicio.unity
    guid: 2cda990e2423bbf4892e6590ba056729
  - enabled: 1
    path: Assets/Scenes/Partida.unity
    guid: f87a949d5bbdfda4faf1229f8ee7b755
  - enabled: 1
    path: Assets/Scenes/Final.unity
    guid: 009886ff70a88804ea240e23c5ea2e6c
  m_configObjects: {}
